ball_flipped/2.csv

#Digilent WaveForms Oscilloscope Acquisition
#Device Name: Discovery2
#Serial Number: SN:210321A80B92
#Date Time: 2023-12-04 11:25:47.914
#Sample rate: 5000Hz
#Samples: 22756
#Trigger: Source: Channel 1 Type: Edge Condition: Rising Level: 2 V Hyst.: Auto HoldOff: 0 s
#Channel 1: Range: 500 mV/div Offset: -2 V Attenuation: 1 X
#Power Supplies: ON
#Positive Supply: ON
#Voltage: 5 V
#Negative Supply: ON
#Voltage: -1 V

#Time (s),Channel 1 (V)
-2.5,1.881508232239563
-2.4998,0.8002464084819603
-2.4996,0.8002464084819603
-2.4994,0.8002464084819603
-2.4992,0.8002464084819603
-2.499,0.8002464084819603
-2.4988,0.80058377566566
-2.4986,0.8002464084819603
-2.4984,0.8002464084819603
-2.4982,0.8002464084819603
-2.498,0.8002464084819603
-2.4978,0.8002464084819603
-2.4976,0.8002464084819603
-2.4974,0.7999090412982606
-2.4972,0.7999090412982606
-2.497,0.7999090412982606
-2.4968,0.8002464084819603
-2.4966,0.8002464084819603
-2.4964,0.8002464084819603
-2.4962,0.8002464084819603
-2.496,0.8002464084819603
-2.4958,0.8002464084819603
-2.4956,0.8002464084819603
-2.4954,0.8002464084819603
-2.4952,0.8002464084819603
-2.495,0.8002464084819603
-2.4948,0.8002464084819603
-2.4946,0.8002464084819603
-2.4944,0.8002464084819603
-2.4942,0.8002464084819603
-2.494,0.8002464084819603
-2.4938,0.8002464084819603
-2.4936,0.8002464084819603
-2.4934,0.8002464084819603
-2.4932,0.8002464084819603
-2.493,0.8002464084819603
-2.4928,0.8002464084819603
-2.4926,0.8002464084819603
-2.4924,0.8002464084819603
-2.4922,0.8002464084819603
-2.492,0.80058377566566
-2.4918,0.80058377566566
-2.4916,0.80058377566566
-2.4914,0.80058377566566
-2.4912,0.80058377566566
-2.491,0.80058377566566
-2.4908,0.80058377566566
-2.4906,0.80058377566566
-2.4904,0.80058377566566
-2.4902,0.80058377566566
-2.49,0.80058377566566
-2.4898,0.80058377566566
-2.4896,0.80058377566566
-2.4894,0.80058377566566
-2.4892,0.80058377566566
-2.489,0.80058377566566
-2.4888,0.80058377566566
-2.4886,0.80058377566566
-2.4884,0.80058377566566
-2.4882,0.8002464084819603
-2.488,0.80058377566566
-2.4878,0.8002464084819603
-2.4876,0.8002464084819603
-2.4874,0.8002464084819603
-2.4872,0.8002464084819603
-2.487,0.8002464084819603
-2.4868,0.8002464084819603
-2.4866,0.8002464084819603
-2.4864,0.80058377566566
-2.4862,0.8002464084819609
-2.486,0.8002464084819603
-2.4858,0.8002464084819603
-2.4856,0.8002464084819603
-2.4854,0.8002464084819603
-2.4852,0.8002464084819603
-2.485,0.8002464084819603
-2.4848,0.8002464084819603
-2.4846,0.8002464084819603
-2.4844,0.8002464084819603
-2.4842,0.8002464084819603
-2.484,0.8002464084819603
-2.4838,0.8002464084819603
-2.4836,0.8002464084819603
-2.4834,0.8002464084819603
-2.4832,0.8002464084819603
-2.483,0.8002464084819603
-2.4828,0.80058377566566
-2.4826,0.8002464084819603
-2.4824,0.8002464084819603
-2.4822,0.8002464084819603
-2.482,0.8002464084819603
-2.4818,0.8002464084819603
-2.4816,0.8002464084819603
-2.4814,0.8002464084819603
-2.4812,0.8002464084819603
-2.481,0.8002464084819603
-2.4808,0.80058377566566
-2.4806,0.8002464084819603
-2.4804,0.8002464084819603
-2.4802,0.8002464084819603
-2.48,0.8002464084819603
-2.4798,0.8002464084819603
-2.4796,0.8002464084819603
-2.4794,0.8002464084819603
-2.4792,0.8002464084819603
-2.479,0.8002464084819603
-2.4788,0.8002464084819603
-2.4786,0.8002464084819603
-2.4784,0.8002464084819603
-2.4782,0.8002464084819603
-2.478,0.8002464084819603
-2.4778,0.8002464084819603
-2.4776,0.8002464084819603
-2.4774,0.8002464084819603
-2.4772,0.8002464084819603
-2.477,0.8002464084819603
-2.4768,0.8002464084819603
-2.4766,0.8002464084819603
-2.4764,0.8002464084819603
-2.4762,0.8002464084819603
-2.476,0.8002464084819603
-2.4758,0.8002464084819603
-2.4756,0.8002464084819603
-2.4754,0.8002464084819603
-2.4752,0.8002464084819603
-2.475,0.8002464084819603
-2.4748,0.8002464084819603
-2.4746,0.8002464084819603
-2.4744,0.8002464084819603
-2.4742,0.8002464084819603
-2.474,0.8002464084819603
-2.4738,0.8002464084819603
-2.4736,0.8002464084819603
-2.4734,0.8002464084819603
-2.4732,0.8002464084819603
-2.473,0.8002464084819603
-2.4728,0.8002464084819603
-2.4726,0.8002464084819603
-2.4724,0.8002464084819603
-2.4722,0.8002464084819603
-2.472,0.80058377566566
-2.4718,0.80058377566566
-2.4716,0.80058377566566
-2.4714,0.80058377566566
-2.4712,0.80058377566566
-2.471,0.80058377566566
-2.4708,0.80058377566566
-2.4706,0.80058377566566
-2.4704,0.80058377566566
-2.4702,0.80058377566566
-2.47,0.80058377566566
-2.4698,0.80058377566566
-2.4696,0.80058377566566
-2.4694,0.80058377566566
-2.4692,0.80058377566566
-2.469,0.80058377566566
-2.4688,0.80058377566566
-2.4686,0.80058377566566
-2.4684,0.80058377566566
-2.4682,0.80058377566566
-2.468,0.80058377566566
-2.4678,0.80058377566566
-2.4676,0.80058377566566
-2.4674,0.80058377566566
-2.4672,0.80058377566566
-2.467,0.80058377566566
-2.4668,0.8002464084819603
-2.4666,0.8002464084819603
-2.4664,0.8002464084819603
-2.4662,0.8002464084819603
-2.466,0.8002464084819603
-2.4658,0.8002464084819603
-2.4656,0.80058377566566
-2.4654,0.8005837756656593
-2.4652,0.8002464084819603
-2.465,0.8002464084819603
-2.4648,0.8002464084819603
-2.4646,0.8002464084819603
-2.4644,0.8002464084819603
-2.4642,0.80058377566566
-2.464,0.8002464084819603
-2.4638,0.80058377566566
-2.4636,0.80058377566566
-2.4634,0.8002464084819603
-2.4632,0.8002464084819603
-2.463,0.8002464084819603
-2.4628,0.8002464084819603
-2.4626,0.8002464084819603
-2.4624,0.8002464084819603
-2.4622,0.8002464084819603
-2.462,0.8002464084819603
-2.4618,0.8002464084819603
-2.4616,0.8002464084819603
-2.4614,0.8002464084819603
-2.4612,0.8002464084819603
-2.461,0.8002464084819603
-2.4608,0.8002464084819603
-2.4606,0.8002464084819603
-2.4604,0.8002464084819603
-2.4602,0.8002464084819603
-2.46,0.8002464084819603
-2.4598,0.8002464084819603
-2.4596,0.8002464084819603
-2.4594,0.8002464084819603
-2.4592,0.8002464084819603
-2.459,0.8002464084819603
-2.4588,0.8002464084819603
-2.4586,0.8002464084819603
-2.4584,0.8002464084819603
-2.4582,0.8002464084819603
-2.458,0.7999090412982612
-2.4578,0.7999090412982606
-2.4576,0.7999090412982612
-2.4574,0.8002464084819596
-2.4572,0.7999090412982606
-2.457,0.7999090412982606
-2.4568,0.7999090412982606
-2.4566,0.8002464084819603
-2.4564,0.8002464084819603
-2.4562,0.8002464084819603
-2.456,0.8002464084819603
-2.4558,0.8002464084819603
-2.4556,0.8002464084819603
-2.4554,0.7999090412982606
-2.4552,0.8002464084819603
-2.455,0.8002464084819603
-2.4548,0.8002464084819603
-2.4546,0.8002464084819603
-2.4544,0.8002464084819603
-2.4542,0.8002464084819603
-2.454,0.8002464084819603
-2.4538,0.8002464084819603
-2.4536,0.8002464084819603
-2.4534,0.8002464084819603
-2.4532,0.8002464084819603
-2.453,0.8002464084819603
-2.4528,0.8002464084819603
-2.4526,0.8002464084819603
-2.4524,0.8002464084819603
-2.4522,0.8002464084819603
-2.452,0.8002464084819603
-2.4518,0.80058377566566
-2.4516,0.80058377566566
-2.4514,0.80058377566566
-2.4512,0.80058377566566
-2.451,0.80058377566566
-2.4508,0.80058377566566
-2.4506,0.80058377566566
-2.4504,0.80058377566566
-2.4502,0.80058377566566
-2.45,0.80058377566566
-2.4498,0.80058377566566
-2.4496,0.80058377566566
-2.4494,0.80058377566566
-2.4492,0.80058377566566
-2.449,0.80058377566566
-2.4488,0.80058377566566
-2.4486,0.80058377566566
-2.4484,0.80058377566566
-2.4482,0.80058377566566
-2.448,0.80058377566566
-2.4478,0.8002464084819603
-2.4476,0.8002464084819603
-2.4474,0.80058377566566
-2.4472,0.8002464084819603
-2.447,0.8002464084819603
-2.4468,0.80058377566566
-2.4466,0.8002464084819603
-2.4464,0.80058377566566
-2.4462,0.8002464084819603
-2.446,0.8002464084819603
-2.4458,0.8002464084819603
-2.4456,0.8002464084819603
-2.4454,0.8002464084819603
-2.4452,0.8002464084819603
-2.445,0.8002464084819603
-2.4448,0.8002464084819603
-2.4446,0.8002464084819603
-2.4444,0.8002464084819603
-2.4442,0.8002464084819603
-2.444,0.8002464084819603
-2.4438,0.80058377566566
-2.4436,0.8002464084819603
-2.4434,0.8002464084819603
-2.4432,0.8002464084819603
-2.443,0.80058377566566
-2.4428,0.8002464084819603
-2.4426,0.8002464084819603
-2.4424,0.8002464084819603
-2.4422,0.8002464084819603
-2.442,0.8002464084819603
-2.4418,0.8002464084819603
-2.4416,0.8002464084819603
-2.4414,0.8002464084819603
-2.4412,0.8002464084819603
-2.441,0.8002464084819603
-2.4408,0.8002464084819603
-2.4406,0.8002464084819603
-2.4404,0.8002464084819603
-2.4402,0.8002464084819603
-2.44,0.8002464084819603
-2.4398,0.8002464084819603
-2.4396,0.8002464084819603
-2.4394,0.8002464084819603
-2.4392,0.8002464084819603
-2.439,0.8002464084819603
-2.4388,0.8002464084819603
-2.4386,0.8002464084819603
-2.4384,0.8002464084819603
-2.4382,0.8002464084819603
-2.438,0.7999090412982606
-2.4378,0.8002464084819596
-2.4376,0.7999090412982612
-2.4374,0.8002464084819596
-2.4372,0.7999090412982612
-2.437,0.8002464084819603
-2.4368,0.8002464084819603
-2.4366,0.8002464084819603
-2.4364,0.8002464084819603
-2.4362,0.8002464084819603
-2.436,0.8002464084819603
-2.4358,0.8002464084819603
-2.4356,0.8002464084819603
-2.4354,0.8002464084819603
-2.4352,0.8002464084819603
-2.435,0.8002464084819603
-2.4348,0.8002464084819603
-2.4346,0.8002464084819603
-2.4344,0.8002464084819603
-2.4342,0.8002464084819603
-2.434,0.8002464084819603
-2.4338,0.8002464084819603
-2.4336,0.8002464084819603
-2.4334,0.8002464084819603
-2.4332,0.8002464084819603
-2.433,0.8002464084819603
-2.4328,0.8002464084819603
-2.4326,0.8002464084819603
-2.4324,0.8002464084819603
-2.4322,0.80058377566566
-2.432,0.80058377566566
-2.4318,0.80058377566566
-2.4316,0.80058377566566
-2.4314,0.80058377566566
-2.4312,0.80058377566566
-2.431,0.80058377566566
-2.4308,0.80058377566566
-2.4306,0.80058377566566
-2.4304,0.80058377566566
-2.4302,0.80058377566566
-2.43,0.80058377566566
-2.4298,0.80058377566566
-2.4296,0.80058377566566
-2.4294,0.80058377566566
-2.4292,0.80058377566566
-2.429,0.80058377566566
-2.4288,0.80058377566566
-2.4286,0.80058377566566
-2.4284,0.80058377566566
-2.4282,0.80058377566566
-2.428,0.80058377566566
-2.4278,0.80058377566566
-2.4276,0.8002464084819603
-2.4274,0.8002464084819603
-2.4272,0.8002464084819603
-2.427,0.8002464084819603
-2.4268,0.8002464084819603
-2.4266,0.8002464084819603
-2.4264,0.8002464084819603
-2.4262,0.8002464084819603
-2.426,0.8002464084819603
-2.4258,0.8002464084819603
-2.4256,0.8002464084819603
-2.4254,0.8002464084819603
-2.4252,0.8002464084819603
-2.425,0.8002464084819603
-2.4248,0.8002464084819603
-2.4246,0.8002464084819603
-2.4244,0.8002464084819603
-2.4242,0.8002464084819603
-2.424,0.8002464084819603
-2.4238,0.8002464084819603
-2.4236,0.8002464084819603
-2.4234,0.8002464084819603
-2.4232,0.8002464084819603
-2.423,0.8002464084819603
-2.4228,0.8002464084819603
-2.4226,0.8002464084819603
-2.4224,0.8002464084819603
-2.4222,0.8002464084819603
-2.422,0.8002464084819603
-2.4218,0.8002464084819603
-2.4216,0.8002464084819603
-2.4214,0.8002464084819603
-2.4212,0.8002464084819603
-2.421,0.8002464084819603
-2.4208,0.8002464084819603
-2.4206,0.8002464084819603
-2.4204,0.8002464084819603
-2.4202,0.8002464084819603
-2.42,0.8002464084819603
-2.4198,0.8002464084819603
-2.4196,0.8002464084819603
-2.4194,0.8002464084819603
-2.4192,0.8002464084819603
-2.419,0.8002464084819603
-2.4188,0.8002464084819603
-2.4186,0.8002464084819603
-2.4184,0.8002464084819603
-2.4182,0.7999090412982606
-2.418,0.8002464084819603
-2.4178,0.7999090412982606
-2.4176,0.8002464084819596
-2.4174,0.7999090412982612
-2.4172,0.7999090412982606
-2.417,0.7999090412982606
-2.4168,0.7999090412982606
-2.4166,0.7999090412982606
-2.4164,0.8002464084819603
-2.4162,0.7999090412982606
-2.416,0.7999090412982606
-2.4158,0.7999090412982606
-2.4156,0.7999090412982606
-2.4154,0.8002464084819603
-2.4152,0.8002464084819603
-2.415,0.8002464084819603
-2.4148,0.8002464084819603
-2.4146,0.8002464084819603
-2.4144,0.8002464084819603
-2.4142,0.8002464084819603
-2.414,0.8002464084819603
-2.4138,0.8002464084819603
-2.4136,0.8002464084819603
-2.4134,0.8002464084819603
-2.4132,0.8002464084819603
-2.413,0.8002464084819603
-2.4128,0.8002464084819603
-2.4126,0.8002464084819603
-2.4124,0.8002464084819603
-2.4122,0.8002464084819603
-2.412,0.8002464084819603
-2.4118,0.80058377566566
-2.4116,0.80058377566566
-2.4114,0.80058377566566
-2.4112,0.80058377566566
-2.411,0.80058377566566
-2.4108,0.80058377566566
-2.4106,0.80058377566566
-2.4104,0.80058377566566
-2.4102,0.80058377566566
-2.41,0.80058377566566
-2.4098,0.80058377566566
-2.4096,0.80058377566566
-2.4094,0.80058377566566
-2.4092,0.80058377566566
-2.409,0.80058377566566
-2.4088,0.80058377566566
-2.4086,0.80058377566566
-2.4084,0.80058377566566
-2.4082,0.80058377566566
-2.408,0.80058377566566
-2.4078,0.8002464084819603
-2.4076,0.8002464084819603
-2.4074,0.8002464084819603
-2.4072,0.8002464084819603
-2.407,0.8002464084819603
-2.4068,0.8002464084819603
-2.4066,0.8002464084819603
-2.4064,0.80058377566566
-2.4062,0.8002464084819603
-2.406,0.8002464084819603
-2.4058,0.8002464084819603
-2.4056,0.8002464084819603
-2.4054,0.8002464084819603
-2.4052,0.8002464084819603
-2.405,0.8002464084819603
-2.4048,0.8002464084819603
-2.4046,0.8002464084819603
-2.4044,0.8002464084819603
-2.4042,0.8002464084819603
-2.404,0.8002464084819603
-2.4038,0.8002464084819603
-2.4036,0.8002464084819603
-2.4034,0.8002464084819603
-2.4032,0.8002464084819603
-2.403,0.8002464084819603
-2.4028,0.8002464084819603
-2.4026,0.8002464084819603
-2.4024,0.8002464084819603
-2.4022,0.8002464084819603
-2.402,0.8002464084819603
-2.4018,0.8002464084819603
-2.4016,0.8002464084819603
-2.4014,0.8002464084819603
-2.4012,0.8002464084819603
-2.401,0.8002464084819603
-2.4008,0.8002464084819603
-2.4006,0.8002464084819603
-2.4004,0.8002464084819603
-2.4002,0.8002464084819603
-2.4,0.8002464084819603
-2.3998,0.8002464084819603
-2.3996,0.8002464084819603
-2.3994,0.8002464084819603
-2.3992,0.8002464084819603
-2.399,0.8002464084819603
-2.3988,0.8002464084819603
-2.3986,0.8002464084819603
-2.3984,0.8002464084819603
-2.3982,0.8002464084819603
-2.398,0.8002464084819603
-2.3978,0.8002464084819603
-2.3976,0.8002464084819603
-2.3974,0.7999090412982612
-2.3972,0.7999090412982606
-2.397,0.8002464084819603
-2.3968,0.8002464084819603
-2.3966,0.8002464084819603
-2.3964,0.8002464084819603
-2.3962,0.8002464084819603
-2.396,0.8002464084819603
-2.3958,0.7999090412982606
-2.3956,0.8002464084819603
-2.3954,0.8002464084819603
-2.3952,0.8002464084819603
-2.395,0.8002464084819603
-2.3948,0.8002464084819603
-2.3946,0.8002464084819603
-2.3944,0.8002464084819603
-2.3942,0.8002464084819603
-2.394,0.8002464084819603
-2.3938,0.8002464084819603
-2.3936,0.8002464084819603
-2.3934,0.8002464084819603
-2.3932,0.8002464084819603
-2.393,0.8002464084819603
-2.3928,0.8002464084819603
-2.3926,0.8002464084819603
-2.3924,0.8002464084819603
-2.3922,0.8002464084819603
-2.392,0.80058377566566
-2.3918,0.8002464084819603
-2.3916,0.80058377566566
-2.3914,0.80058377566566
-2.3912,0.80058377566566
-2.391,0.80058377566566
-2.3908,0.80058377566566
-2.3906,0.80058377566566
-2.3904,0.80058377566566
-2.3902,0.80058377566566
-2.39,0.80058377566566
-2.3898,0.80058377566566
-2.3896,0.80058377566566
-2.3894,0.80058377566566
-2.3892,0.80058377566566
-2.389,0.80058377566566
-2.3888,0.80058377566566
-2.3886,0.80058377566566
-2.3884,0.80058377566566
-2.3882,0.80058377566566
-2.388,0.80058377566566
-2.3878,0.8002464084819603
-2.3876,0.8002464084819603
-2.3874,0.80058377566566
-2.3872,0.80058377566566
-2.387,0.8002464084819603
-2.3868,0.8002464084819603
-2.3866,0.8002464084819603
-2.3864,0.8002464084819603
-2.3862,0.8002464084819603
-2.386,0.80058377566566
-2.3858,0.8002464084819603
-2.3856,0.8002464084819603
-2.3854,0.8002464084819603
-2.3852,0.8002464084819603
-2.385,0.8002464084819603
-2.3848,0.8002464084819603
-2.3846,0.8002464084819603
-2.3844,0.8002464084819603
-2.3842,0.8002464084819603
-2.384,0.8002464084819603
-2.3838,0.8002464084819603
-2.3836,0.8002464084819603
-2.3834,0.8002464084819603
-2.3832,0.8002464084819603
-2.383,0.8002464084819603
-2.3828,0.8002464084819603
-2.3826,0.8002464084819603
-2.3824,0.8002464084819603
-2.3822,0.8002464084819603
-2.382,0.8002464084819603
-2.3818,0.8002464084819603
-2.3816,0.8002464084819603
-2.3814,0.8002464084819603
-2.3812,0.8005837756656593
-2.381,0.8002464084819603
-2.3808,0.8002464084819603
-2.3806,0.8002464084819603
-2.3804,0.8002464084819603
-2.3802,0.8002464084819603
-2.38,0.8002464084819603
-2.3798,0.8002464084819603
-2.3796,0.8002464084819603
-2.3794,0.8002464084819603
-2.3792,0.8002464084819603
-2.379,0.8002464084819603
-2.3788,0.8002464084819603
-2.3786,0.8002464084819603
-2.3784,0.8002464084819603
-2.3782,0.8002464084819603
-2.378,0.8002464084819603
-2.3778,0.8002464084819603
-2.3776,0.8002464084819603
-2.3774,0.8002464084819603
-2.3772,0.7999090412982612
-2.377,0.8002464084819603
-2.3768,0.8002464084819596
-2.3766,0.7999090412982606
-2.3764,0.8002464084819603
-2.3762,0.8002464084819603
-2.376,0.8002464084819603
-2.3758,0.7999090412982606
-2.3756,0.8002464084819603
-2.3754,0.8002464084819603
-2.3752,0.8002464084819603
-2.375,0.8002464084819603
-2.3748,0.8002464084819603
-2.3746,0.8002464084819603
-2.3744,0.8002464084819603
-2.3742,0.8002464084819603
-2.374,0.8002464084819603
-2.3738,0.8002464084819603
-2.3736,0.8002464084819603
-2.3734,0.8002464084819603
-2.3732,0.8002464084819603
-2.373,0.8002464084819603
-2.3728,0.8002464084819603
-2.3726,0.8002464084819603
-2.3724,0.8002464084819603
-2.3722,0.8002464084819603
-2.372,0.8002464084819603
-2.3718,0.80058377566566
-2.3716,0.8002464084819603
-2.3714,0.80058377566566
-2.3712,0.80058377566566
-2.371,0.80058377566566
-2.3708,0.80058377566566
-2.3706,0.80058377566566
-2.3704,0.80058377566566
-2.3702,0.80058377566566
-2.37,0.80058377566566
-2.3698,0.80058377566566
-2.3696,0.80058377566566
-2.3694,0.80058377566566
-2.3692,0.80058377566566
-2.369,0.80058377566566
-2.3688,0.80058377566566
-2.3686,0.80058377566566
-2.3684,0.80058377566566
-2.3682,0.80058377566566
-2.368,0.80058377566566
-2.3678,0.8002464084819603
-2.3676,0.8002464084819603
-2.3674,0.8002464084819603
-2.3672,0.8002464084819603
-2.367,0.8002464084819603
-2.3668,0.8002464084819603
-2.3666,0.8002464084819603
-2.3664,0.8002464084819603
-2.3662,0.8002464084819603
-2.366,0.8002464084819603
-2.3658,0.8002464084819603
-2.3656,0.8002464084819603
-2.3654,0.8002464084819603
-2.3652,0.8002464084819603
-2.365,0.8002464084819603
-2.3648,0.8002464084819603
-2.3646,0.8002464084819603
-2.3644,0.8002464084819603
-2.3642,0.8002464084819603
-2.364,0.8002464084819603
-2.3638,0.8002464084819603
-2.3636,0.8002464084819603
-2.3634,0.8002464084819603
-2.3632,0.8002464084819603
-2.363,0.8002464084819603
-2.3628,0.8002464084819603
-2.3626,0.8002464084819603
-2.3624,0.8002464084819603
-2.3622,0.8002464084819603
-2.362,0.8002464084819603
-2.3618,0.8002464084819603
-2.3616,0.8002464084819603
-2.3614,0.8002464084819603
-2.3612,0.8002464084819603
-2.361,0.8002464084819603
-2.3608,0.8002464084819603
-2.3606,0.8002464084819603
-2.3604,0.8002464084819603
-2.3602,0.8002464084819603
-2.36,0.8002464084819603
-2.3598,0.8002464084819603
-2.3596,0.8002464084819603
-2.3594,0.8002464084819603
-2.3592,0.80058377566566
-2.359,0.8002464084819603
-2.3588,0.8002464084819603
-2.3586,0.8002464084819603
-2.3584,0.8002464084819603
-2.3582,0.7999090412982606
-2.358,0.7999090412982606
-2.3578,0.7999090412982606
-2.3576,0.8002464084819603
-2.3574,0.7999090412982606
-2.3572,0.7999090412982606
-2.357,0.8002464084819596
-2.3568,0.8002464084819596
-2.3566,0.7999090412982606
-2.3564,0.7999090412982606
-2.3562,0.8002464084819603
-2.356,0.8002464084819603
-2.3558,0.8002464084819603
-2.3556,0.8002464084819603
-2.3554,0.8002464084819603
-2.3552,0.8002464084819603
-2.355,0.8002464084819603
-2.3548,0.8002464084819603
-2.3546,0.8002464084819603
-2.3544,0.8002464084819603
-2.3542,0.8002464084819603
-2.354,0.8002464084819603
-2.3538,0.8002464084819603
-2.3536,0.8002464084819603
-2.3534,0.8002464084819603
-2.3532,0.8002464084819603
-2.353,0.8002464084819603
-2.3528,0.8002464084819603
-2.3526,0.8002464084819603
-2.3524,0.8002464084819603
-2.3522,0.8002464084819603
-2.352,0.80058377566566
-2.3518,0.80058377566566
-2.3516,0.80058377566566
